[{
        "login": "user1",
        "password": "qwerty123",
        "info": {
            "name": "UserName1",
            "email": "test@email.com",
            "img": "https://images.unsplash.com/photo-1569466896818-335b1bedfcce?ixlib=rb-1.2.1&ixid=eyJhcHBfaWQiOjEyMDd9&auto=format&fit=crop&w=2000&q=80"
        }
    },
    {
        "login": "user2",
        "password": "123",
        "info": {
            "name": "UserName2",
            "email": "test2@email.com",
            "img": "https://images.unsplash.com/photo-1551712702-4b7335dd8706?ixlib=rb-1.2.1&ixid=eyJhcHBfaWQiOjEyMDd9&auto=format&fit=crop&w=2000&q=80"
        }
    }
]